Session 2: Introduction to Data Wrangling
…
The sum command helps us count how many NAs there are in a column as the logical TRUE/FALSE vector created by the is.na() function is converted to a binary numeric vector.

raw_listings %>% 
  select(bathrooms) %>%
  is.na() %>%
  sum()

## [1] 14

We could remove these records using

raw_listings %>% 
  filter(!is.na(bathrooms))

## # A tibble: 3,571 x 95
##        id listing_url scrape_id last_scraped name  summary space description
##     <dbl> <chr>           <dbl> <date>       <chr> <chr>   <chr> <chr>      
##  1 1.21e7 https://ww~   2.02e13 2016-09-07   "Sun~ "Cozy,~ "The~ "Cozy, sun~
##  2 3.08e6 https://ww~   2.02e13 2016-09-07   "Cha~ "Charm~ "Sma~ "Charming ~
##  3 6.98e3 https://ww~   2.02e13 2016-09-07   "Mex~ "Come ~ "Com~ "Come stay~
##  4 1.44e6 https://ww~   2.02e13 2016-09-07   "Spa~ "Come ~ "Mos~ "Come expe~
##  5 7.65e6 https://ww~   2.02e13 2016-09-07   "Com~ "My co~ "Cle~ "My comfy,~
##  6 1.24e7 https://ww~   2.02e13 2016-09-07   "Pri~ "Super~ "Our~ "Super com~
##  7 5.71e6 https://ww~   2.02e13 2016-09-07   "New~ "It's ~ "The~ "It's a 5 ~
##  8 2.84e6 https://ww~   2.02e13 2016-09-07   "\"T~ "We ca~ "We ~ "We can ac~
##  9 7.53e5 https://ww~   2.02e13 2016-09-07   "6 m~ "Nice ~ "Nic~ "Nice and ~
## 10 8.49e5 https://ww~   2.02e13 2016-09-07   "Per~ "This ~ "Per~ "This is a~
## # ... with 3,561 more rows, and 87 more variables: experiences_offered <chr>,
## #   neighborhood_overview <chr>, notes <chr>, transit <chr>, access <chr>,
## #   interaction <chr>, house_rules <chr>, thumbnail_url <chr>,
## #   medium_url <chr>, picture_url <chr>, xl_picture_url <chr>, host_id <dbl>,
## #   host_url <chr>, host_name <chr>, host_since <date>, host_location <chr>,
## #   host_about <chr>, host_response_time <chr>, host_response_rate <chr>,
## #   host_acceptance_rate <chr>, host_is_superhost <lgl>,
## #   host_thumbnail_url <chr>, host_picture_url <chr>, host_neighbourhood <chr>,
## #   host_listings_count <dbl>, host_total_listings_count <dbl>,
…
But what if we want to group our data by the variable neighborhood_cleansed and then calculate a mean for each individual group?

We can do this using the group_by function.

listings %>%
  group_by(neighbourhood_cleansed) %>%
  summarize(avg.price = mean(nprice))

## `summarise()` ungrouping output (override with `.groups` argument)

## # A tibble: 25 x 2
##    neighbourhood_cleansed avg.price
##    <chr>                      <dbl>
##  1 Allston                    112. 
##  2 Back Bay                   241. 
##  3 Bay Village                267. 
##  4 Beacon Hill                225. 
##  5 Brighton                   119. 
##  6 Charlestown                198. 
##  7 Chinatown                  232. 
##  8 Dorchester                  91.9
##  9 Downtown                   236. 
## 10 East Boston                119. 
## # ... with 15 more rows

Whenever we use means, it is a good idea to check for outliers. The n() function gives a count of how many rows we have in each group.

listings %>%
  group_by(neighbourhood_cleansed) %>%
  summarize(avg.price = mean(nprice),
            med.price = median(nprice),
            num = n())

## `summarise()` ungrouping output (override with `.groups` argument)

## # A tibble: 25 x 4
##    neighbourhood_cleansed avg.price med.price   num
##    <chr>                      <dbl>     <dbl> <int>
##  1 Allston                    112.        85    260
##  2 Back Bay                   241.       209    299
##  3 Bay Village                267.       206.    24
##  4 Beacon Hill                225.       195    193
##  5 Brighton                   119.        90    185
##  6 Charlestown                198.       180    111
##  7 Chinatown                  232.       219     71
##  8 Dorchester                  91.9       73    267
##  9 Downtown                   236.       225    172
## 10 East Boston                119.        99    150
## # ... with 15 more rows
…
